[gd_scene load_steps=2 format=2]

[ext_resource path="res://Connect/Prompt.gd" type="Script" id=1]

[node name="Center" type="Node2D" groups=[
"notes",
]]
scale = Vector2( 20, 20 )
script = ExtResource( 1 )

[node name="StarOutline" type="Polygon2D" parent="."]
color = Color( 0, 0, 0, 1 )
polygon = PoolVector2Array( -0.0402451, -4.67666, -1.82607, -1.65068, -5.89379, -2.19635, -2.76859, 0.531996, -4.15757, 3.7564, -0.0402451, 1.42491, 3.72983, 3.65719, 2.04322, 0.432783, 4.72196, -2.14674, 1.1007, -1.99792 )

[node name="Star" type="Polygon2D" parent="."]
scale = Vector2( 0.5, 0.5 )
polygon = PoolVector2Array( -0.0402451, -4.67666, -1.82607, -1.65068, -5.89379, -2.19635, -2.76859, 0.531996, -4.15757, 3.7564, -0.0402451, 1.42491, 3.72983, 3.65719, 2.04322, 0.432783, 4.72196, -2.14674, 1.1007, -1.99792 )
