[gd_scene load_steps=6 format=2]

[ext_resource path="res://Shooter/Bullet.gd" type="Script" id=1]
[ext_resource path="res://Assets/Star.png" type="Texture" id=2]

[sub_resource type="Animation" id=1]
resource_name = "pulse"
length = 0.3
loop = true
step = 0.05
tracks/0/type = "value"
tracks/0/path = NodePath(".:scale")
tracks/0/interp = 2
tracks/0/loop_wrap = true
tracks/0/imported = false
tracks/0/enabled = true
tracks/0/keys = {
"times": PoolRealArray( 0, 0.05, 0.25, 0.3 ),
"transitions": PoolRealArray( 0.217638, 0.901249, 1, 0.125 ),
"update": 0,
"values": [ Vector2( 20, 25 ), Vector2( 28, 32 ), Vector2( 28, 32 ), Vector2( 20, 25 ) ]
}

[sub_resource type="Animation" id=2]
resource_name = "spin"
length = 0.3
loop = true

[sub_resource type="CircleShape2D" id=3]
radius = 4.59402

[node name="Center" type="KinematicBody2D" groups=[
"notes",
]]
scale = Vector2( 20, 25 )
collision_mask = 0
script = ExtResource( 1 )

[node name="StarOutline" type="Polygon2D" parent="."]
color = Color( 0, 0, 0, 1 )
polygon = PoolVector2Array( -0.0402451, -4.67666, -1.38827, -1.67957, -4.79879, -1.35647, -2.19602, 0.941145, -2.9589, 4.24396, 0.00286407, 2.59255, 2.91976, 4.35166, 2.3128, 0.932611, 4.94448, -1.40666, 1.47212, -1.69907 )

[node name="Star" type="Polygon2D" parent="."]
scale = Vector2( 0.55, 0.55 )
polygon = PoolVector2Array( 0.0189389, -4.75206, -1.41799, -1.65072, -4.96618, -1.23934, -2.13791, 1.18782, -3.32064, 4.76686, 0.0218478, 2.70994, 3.21007, 4.68458, 2.33588, 1.02327, 4.96701, -1.25096, 1.46169, -1.56844 )

[node name="TTL" type="Timer" parent="."]
wait_time = 10.0
one_shot = true
autostart = true

[node name="Animation" type="AnimationPlayer" parent="."]
anims/pulse = SubResource( 1 )
anims/spin = SubResource( 2 )

[node name="Collision" type="CollisionShape2D" parent="."]
position = Vector2( 0, 0.215401 )
shape = SubResource( 3 )

[node name="Light2D" type="Light2D" parent="."]
texture = ExtResource( 2 )
texture_scale = 0.23
energy = 0.65
[connection signal="timeout" from="TTL" to="." method="_on_TTL_timeout"]
